<svg xmlns="http://www.w3.org/2000/svg" viewBox="0 0 62 62">
    <title>computer-211</title>
    <g id="Слой_2" data-name="Слой 2">
        <g id="Layer_1" data-name="Layer 1">
            <path d="M51,36H13a13,13,0,0,1,0-26,12.88,12.88,0,0,1,3,.36A7,7,0,0,1,22,7a6.86,6.86,0,0,1,2.94.65,15,15,0,0,1,28,6.53A11,11,0,0,1,51,36ZM13,12a11,11,0,0,0,0,22H51a9,9,0,0,0,.9-17.95L51,16v-1A13,13,0,0,0,26.26,9.45l-.5,1.05-1-.65A4.93,4.93,0,0,0,22,9a5,5,0,0,0-4.55,2.94l-.37.81-.84-.26A10.79,10.79,0,0,0,13,12Z"
                  />
            <path d="M42,62H0V44H42ZM2,60H40V46H2Z" />
            <path d="M55,62a7,7,0,0,1-7-7V51a7,7,0,0,1,14,0v4A7,7,0,0,1,55,62Zm0-16a5,5,0,0,0-5,5v4a5,5,0,0,0,10,0V51A5,5,0,0,0,55,46Z"
                  />
            <rect x="49" y="50" width="12" height="2" />
            <rect x="54" y="48" width="2" height="3" />
            <path d="M56,45H54V42a1,1,0,0,0-1-1H45a3,3,0,0,1-3-3V35h2v3a1,1,0,0,0,1,1h8a3,3,0,0,1,3,3Z" />
            <path d="M21,45H19V42a3,3,0,0,1,3-3h4a1,1,0,0,0,1-1V35h2v3a3,3,0,0,1-3,3H22a1,1,0,0,0-1,1Z" />
            <rect x="4" y="56" width="2" height="2" />
            <rect x="8" y="56" width="2" height="2" />
            <rect x="32" y="56" width="2" height="2" />
            <rect x="36" y="56" width="2" height="2" />
            <rect x="4" y="52" width="2" height="2" />
            <rect x="8" y="52" width="2" height="2" />
            <rect x="12" y="52" width="2" height="2" />
            <rect x="16" y="52" width="2" height="2" />
            <rect x="20" y="52" width="2" height="2" />
            <rect x="24" y="52" width="2" height="2" />
            <rect x="28" y="52" width="2" height="2" />
            <rect x="32" y="52" width="2" height="2" />
            <rect x="36" y="52" width="2" height="2" />
            <rect x="4" y="48" width="2" height="2" />
            <rect x="8" y="48" width="2" height="2" />
            <rect x="12" y="48" width="2" height="2" />
            <rect x="16" y="48" width="2" height="2" />
            <rect x="20" y="48" width="2" height="2" />
            <rect x="24" y="48" width="2" height="2" />
            <rect x="28" y="48" width="2" height="2" />
            <rect x="32" y="48" width="2" height="2" />
            <rect x="36" y="48" width="2" height="2" />
            <rect x="12" y="56" width="18" height="2" />
        </g>
    </g>
</svg>