<svg xmlns="http://www.w3.org/2000/svg" viewBox="0 0 62 61">
    <title>data-255</title>
    <g id="Слой_2" data-name="Слой 2">
        <g id="Layer_1" data-name="Layer 1">
            <path d="M51,36H13a13,13,0,0,1,0-26,12.88,12.88,0,0,1,3,.36A7,7,0,0,1,22,7a6.86,6.86,0,0,1,2.94.65,15,15,0,0,1,28,6.53A11,11,0,0,1,51,36ZM13,12a11,11,0,0,0,0,22H51a9,9,0,0,0,.9-17.95L51,16v-1A13,13,0,0,0,26.26,9.45l-.5,1.05-1-.65A4.93,4.93,0,0,0,22,9a5,5,0,0,0-4.55,2.94l-.37.81-.84-.26A10.79,10.79,0,0,0,13,12Z"
                  />
            <rect x="4" y="16" width="2" height="5" />
            <rect x="8" y="16" width="2" height="5" />
            <path d="M14.5,21A2.5,2.5,0,1,1,17,18.5,2.5,2.5,0,0,1,14.5,21Zm0-3a.5.5,0,1,0,.5.5A.5.5,0,0,0,14.5,18Z"
                  />
            <rect x="19" y="16" width="2" height="5" />
            <path d="M25.5,21A2.5,2.5,0,1,1,28,18.5,2.5,2.5,0,0,1,25.5,21Zm0-3a.5.5,0,1,0,.5.5A.5.5,0,0,0,25.5,18Z"
                  />
            <path d="M36.5,21A2.5,2.5,0,1,1,39,18.5,2.5,2.5,0,0,1,36.5,21Zm0-3a.5.5,0,1,0,.5.5A.5.5,0,0,0,36.5,18Z"
                  />
            <rect x="48" y="16" width="2" height="5" />
            <path d="M54.5,21A2.5,2.5,0,1,1,57,18.5,2.5,2.5,0,0,1,54.5,21Zm0-3a.5.5,0,1,0,.5.5A.5.5,0,0,0,54.5,18Z"
                  />
            <rect x="14" y="40" width="2" height="5" />
            <path d="M20.5,45A2.5,2.5,0,1,1,23,42.5,2.5,2.5,0,0,1,20.5,45Zm0-3a.5.5,0,1,0,.5.5A.5.5,0,0,0,20.5,42Z"
                  />
            <rect x="29" y="40" width="2" height="5" />
            <rect x="44" y="40" width="2" height="5" />
            <path d="M17.5,53A2.5,2.5,0,1,1,20,50.5,2.5,2.5,0,0,1,17.5,53Zm0-3a.5.5,0,1,0,.5.5A.5.5,0,0,0,17.5,50Z"
                  />
            <path d="M24.5,53A2.5,2.5,0,1,1,27,50.5,2.5,2.5,0,0,1,24.5,53Zm0-3a.5.5,0,1,0,.5.5A.5.5,0,0,0,24.5,50Z"
                  />
            <rect x="33" y="48" width="2" height="5" />
            <path d="M39.5,53A2.5,2.5,0,1,1,42,50.5,2.5,2.5,0,0,1,39.5,53Zm0-3a.5.5,0,1,0,.5.5A.5.5,0,0,0,39.5,50Z"
                  />
            <rect x="44" y="48" width="2" height="5" />
            <path d="M50.5,53A2.5,2.5,0,1,1,53,50.5,2.5,2.5,0,0,1,50.5,53Zm0-3a.5.5,0,1,0,.5.5A.5.5,0,0,0,50.5,50Z"
                  />
            <rect x="20" y="56" width="2" height="5" />
            <path d="M26.5,61A2.5,2.5,0,1,1,29,58.5,2.5,2.5,0,0,1,26.5,61Zm0-3a.5.5,0,1,0,.5.5A.5.5,0,0,0,26.5,58Z"
                  />
            <rect x="31" y="56" width="2" height="5" />
            <path d="M37.5,61A2.5,2.5,0,1,1,40,58.5,2.5,2.5,0,0,1,37.5,61Zm0-3a.5.5,0,1,0,.5.5A.5.5,0,0,0,37.5,58Z"
                  />
            <rect x="42" y="56" width="2" height="5" />
            <rect x="28" y="7" width="2" height="5" />
            <path d="M38.5,12A2.5,2.5,0,1,1,41,9.5,2.5,2.5,0,0,1,38.5,12Zm0-3a.5.5,0,1,0,.5.5A.5.5,0,0,0,38.5,9Z"
                  />
            <rect x="32" y="7" width="2" height="5" />
            <rect x="43" y="7" width="2" height="5" />
            <rect x="47" y="7" width="2" height="5" />
            <rect x="30" y="16" width="2" height="5" />
            <path d="M43.5,21A2.5,2.5,0,1,1,46,18.5,2.5,2.5,0,0,1,43.5,21Zm0-3a.5.5,0,1,0,.5.5A.5.5,0,0,0,43.5,18Z"
                  />
            <rect x="55" y="25" width="2" height="5" />
            <rect x="51" y="25" width="2" height="5" />
            <path d="M46.5,30A2.5,2.5,0,1,1,49,27.5,2.5,2.5,0,0,1,46.5,30Zm0-3a.5.5,0,1,0,.5.5A.5.5,0,0,0,46.5,27Z"
                  />
            <rect x="40" y="25" width="2" height="5" />
            <path d="M35.5,30A2.5,2.5,0,1,1,38,27.5,2.5,2.5,0,0,1,35.5,30Zm0-3a.5.5,0,1,0,.5.5A.5.5,0,0,0,35.5,27Z"
                  />
            <path d="M24.5,30A2.5,2.5,0,1,1,27,27.5,2.5,2.5,0,0,1,24.5,30Zm0-3a.5.5,0,1,0,.5.5A.5.5,0,0,0,24.5,27Z"
                  />
            <rect x="11" y="25" width="2" height="5" />
            <path d="M6.5,30A2.5,2.5,0,1,1,9,27.5,2.5,2.5,0,0,1,6.5,30Zm0-3a.5.5,0,1,0,.5.5A.5.5,0,0,0,6.5,27Z"
                  />
            <rect x="29" y="25" width="2" height="5" />
            <path d="M17.5,30A2.5,2.5,0,1,1,20,27.5,2.5,2.5,0,0,1,17.5,30Zm0-3a.5.5,0,1,0,.5.5A.5.5,0,0,0,17.5,27Z"
                  />
            <rect x="25" y="40" width="2" height="5" />
            <rect x="33" y="40" width="2" height="5" />
            <path d="M39.5,45A2.5,2.5,0,1,1,42,42.5,2.5,2.5,0,0,1,39.5,45Zm0-3a.5.5,0,1,0,.5.5A.5.5,0,0,0,39.5,42Z"
                  />
            <rect x="48" y="40" width="2" height="5" />
            <rect x="29" y="48" width="2" height="5" />
            <rect x="46" y="56" width="2" height="5" />
            <rect x="16" y="56" width="2" height="5" />
            <rect x="12" y="56" width="2" height="5" />
        </g>
    </g>
</svg>