<?xml version="1.0" encoding="iso-8859-1"?>
<!-- Generator: Adobe Illustrator 19.0.0, SVG Export Plug-In . SVG Version: 6.00 Build 0)  -->
<svg version="1.1" id="Layer_1" xmlns="http://www.w3.org/2000/svg" xmlns:xlink="http://www.w3.org/1999/xlink" x="0px" y="0px"
	 viewBox="0 0 512 512" style="enable-background:new 0 0 512 512;" xml:space="preserve">
<g>
	<g>
		<g>
			<path  d="M426.667,256c0,4.71,3.823,8.533,8.533,8.533h34.133c4.71,0,8.533-3.823,8.533-8.533s-3.823-8.533-8.533-8.533H435.2
				C430.49,247.467,426.667,251.29,426.667,256z"/>
			<path stroke-width="5" d="M256,0C114.842,0,0,114.842,0,256c0,40.593,9.225,79.42,27.418,115.388c2.125,4.207,7.253,5.897,11.469,3.772
				c4.207-2.133,5.888-7.262,3.763-11.469C25.677,330.129,17.067,293.888,17.067,256C17.067,124.254,124.254,17.067,256,17.067
				S494.933,124.254,494.933,256S387.746,494.933,256,494.933c-70.084,0-137.293-31.607-183.006-85.333H409.6
				c4.71,0,8.533-3.823,8.533-8.533s-3.823-8.533-8.533-8.533H55.33c-3.447,0-6.494,2.142-7.817,5.333
				c-1.169,2.825-0.674,6.076,1.152,8.482C97.382,472.508,174.882,512,256,512c141.158,0,256-114.842,256-256S397.158,0,256,0z"/>
			<path d="M459.853,192.538l-32.973,8.841c-4.548,1.22-7.253,5.896-6.033,10.445c1.024,3.814,4.471,6.332,8.243,6.332
				c0.725,0,1.476-0.094,2.21-0.299l32.964-8.832c4.557-1.22,7.253-5.897,6.033-10.445
				C469.077,194.022,464.393,191.292,459.853,192.538z"/>
			<path d="M359.569,79.334C328.235,60.928,292.42,51.2,256,51.2C143.078,51.2,51.2,143.078,51.2,256
				c0,45.534,12.416,85.7,35.908,116.147c1.681,2.176,4.207,3.319,6.758,3.319c1.826,0,3.661-0.58,5.214-1.775
				c3.729-2.884,4.42-8.243,1.544-11.972C79.155,333.892,68.267,298.325,68.267,256c0-103.518,84.215-187.733,187.733-187.733
				c33.382,0,66.21,8.917,94.933,25.788c4.062,2.381,9.284,1.033,11.674-3.038C364.996,86.955,363.639,81.724,359.569,79.334z"/>
			<path d="M436.471,141.943l-29.551,17.058c-4.079,2.355-5.487,7.578-3.132,11.657c1.587,2.739,4.454,4.267,7.407,4.267
				c1.442,0,2.91-0.367,4.258-1.143l29.551-17.058c4.079-2.355,5.487-7.569,3.132-11.657
				C445.773,140.979,440.559,139.58,436.471,141.943z"/>
			<path d="M395.034,104.9L273.229,226.705c-5.077-3.004-10.914-4.838-17.229-4.838c-18.825,0-34.133,15.309-34.133,34.133
				c0,6.315,1.835,12.151,4.838,17.229l-27.938,27.938c-3.337,3.337-3.337,8.73,0,12.066c1.664,1.664,3.849,2.5,6.033,2.5
				c2.185,0,4.369-0.836,6.033-2.5l27.938-27.938c5.077,3.004,10.914,4.838,17.229,4.838c18.825,0,34.133-15.309,34.133-34.133
				c0-6.315-1.835-12.151-4.838-17.229L407.1,116.966c3.337-3.337,3.337-8.73,0-12.066
				C403.763,101.564,398.37,101.564,395.034,104.9z M256,273.067c-9.412,0-17.067-7.654-17.067-17.067
				c0-9.412,7.654-17.067,17.067-17.067c9.412,0,17.067,7.654,17.067,17.067C273.067,265.412,265.412,273.067,256,273.067z"/>
		</g>
	</g>
</g>
<g>
</g>
<g>
</g>
<g>
</g>
<g>
</g>
<g>
</g>
<g>
</g>
<g>
</g>
<g>
</g>
<g>
</g>
<g>
</g>
<g>
</g>
<g>
</g>
<g>
</g>
<g>
</g>
<g>
</g>
</svg>
