<svg xmlns="http://www.w3.org/2000/svg" viewBox="0 0 62 62">
    <title>file-232</title>
    <g id="Слой_2" data-name="Слой 2">
        <g id="Layer_1" data-name="Layer 1">
            <path d="M41,42H21a3,3,0,0,1-3-3V20H40v5h4V39A3,3,0,0,1,41,42ZM23.83,40H41a1,1,0,0,0,1-1V27H29.59l-2-2H24V39A3,3,0,0,1,23.83,40ZM20,22V39a1,1,0,0,0,2,0V23h6.41l2,2H38V22Z"
                  />
            <path d="M13,14H3a3,3,0,0,1-3-3V0H4.62l1,2H16v9A3,3,0,0,1,13,14ZM2,2v9a1,1,0,0,0,1,1H13a1,1,0,0,0,1-1V4H4.38l-1-2Z"
                  />
            <path d="M59,14H49a3,3,0,0,1-3-3V0h4.62l1,2H62v9A3,3,0,0,1,59,14ZM48,2v9a1,1,0,0,0,1,1H59a1,1,0,0,0,1-1V4H50.38l-1-2Z"
                  />
            <path d="M13,62H3a3,3,0,0,1-3-3V48H4.62l1,2H16v9A3,3,0,0,1,13,62ZM2,50v9a1,1,0,0,0,1,1H13a1,1,0,0,0,1-1V52H4.38l-1-2Z"
                  />
            <path d="M59,62H49a3,3,0,0,1-3-3V48h4.62l1,2H62v9A3,3,0,0,1,59,62ZM48,50v9a1,1,0,0,0,1,1H59a1,1,0,0,0,1-1V52H50.38l-1-2Z"
                  />
            <path d="M23,57H15V55h8a1,1,0,0,0,1-1V41h2V54A3,3,0,0,1,23,57Z" />
            <path d="M47,57H39a3,3,0,0,1-3-3V41h2V54a1,1,0,0,0,1,1h8Z" />
            <path d="M52,34H43V32h9a1,1,0,0,0,1-1V13h2V31A3,3,0,0,1,52,34Z" />
            <path d="M19,34H10a3,3,0,0,1-3-3V13H9V31a1,1,0,0,0,1,1h9Z" />
        </g>
    </g>
</svg>