<svg xmlns="http://www.w3.org/2000/svg" viewBox="0 0 62 62">
    <defs>

    </defs>
    <title>management-246</title>
    <g id="Слой_2" data-name="Слой 2">
        <g id="Layer_1" data-name="Layer 1">
            <path
                  d="M51,36H42V34h9a9,9,0,0,0,.9-17.95L51,16v-1A13,13,0,0,0,26.26,9.45l-.5,1.05-1-.65A4.93,4.93,0,0,0,22,9a5,5,0,0,0-4.55,2.94l-.37.81-.84-.26A10.79,10.79,0,0,0,13,12a11,11,0,0,0,0,22h7v2H13a13,13,0,0,1,0-26,12.88,12.88,0,0,1,3,.36A7,7,0,0,1,22,7a6.86,6.86,0,0,1,2.94.65,15,15,0,0,1,28,6.53A11,11,0,0,1,51,36Z"/>
            <path
                  d="M34,44H28V41.64a12.81,12.81,0,0,1-3.82-1.58l-1.67,1.67-4.24-4.24,1.67-1.67A12.92,12.92,0,0,1,18.36,32H16V26h2.36a12.92,12.92,0,0,1,1.58-3.82l-1.67-1.67,4.24-4.24,1.67,1.67A12.92,12.92,0,0,1,28,16.36V14h6v2.36a12.92,12.92,0,0,1,3.82,1.58l1.67-1.67,4.24,4.24-1.67,1.67A12.92,12.92,0,0,1,43.64,26H46v6H43.64a12.92,12.92,0,0,1-1.58,3.82l1.67,1.67-4.24,4.24-1.67-1.67A12.81,12.81,0,0,1,34,41.64Zm-4-2h2V40l.83-.14A10.75,10.75,0,0,0,37.37,38l.68-.49,1.44,1.43,1.41-1.41-1.43-1.44.49-.68a10.75,10.75,0,0,0,1.87-4.54L42,30h2V28H42l-.14-.83A10.75,10.75,0,0,0,40,22.63L39.47,22l1.43-1.44L39.49,19.1l-1.44,1.43L37.37,20a10.75,10.75,0,0,0-4.54-1.87L32,18V16H30v2l-.83.14A10.75,10.75,0,0,0,24.63,20l-.68.49L22.51,19.1,21.1,20.51,22.53,22l-.49.68a10.75,10.75,0,0,0-1.87,4.54L20,28H18v2h2l.14.83A10.75,10.75,0,0,0,22,35.37l.49.68L21.1,37.49l1.41,1.41L24,37.47l.68.49a10.75,10.75,0,0,0,4.54,1.87L30,40Z"/>
            <path d="M31,36a7,7,0,1,1,7-7A7,7,0,0,1,31,36Zm0-12a5,5,0,1,0,5,5A5,5,0,0,0,31,24Z"/>
            <path d="M36,52H26a3,3,0,0,1,0-6H36a3,3,0,0,1,0,6ZM26,48a1,1,0,0,0,0,2H36a1,1,0,0,0,0-2Z"/>
            <path d="M35,56H27a3,3,0,0,1,0-6h8a3,3,0,0,1,0,6Zm-8-4a1,1,0,0,0,0,2h8a1,1,0,0,0,0-2Z"/>
            <rect x="24" y="40" width="2" height="7"/>
            <rect x="36" y="40" width="2" height="7"/>
            <path d="M61,62H50V61a7,7,0,0,0-7-7H37V52h6a9,9,0,0,1,8.94,8H61Z"/>
            <path d="M12,62H1V60h9.06A9,9,0,0,1,19,52h6v2H19a7,7,0,0,0-7,7Z"/>
        </g>
    </g>
</svg>