<svg xmlns="http://www.w3.org/2000/svg" viewBox="0 0 34.89 34.5">
    <title>Ресурс 3</title>
    <g id="Слой_2" data-name="Слой 2">
        <g id="Слой_1-2" data-name="Слой 1">
            <path d="M33.9,11.19l-.14,20.33a2,2,0,0,1-1.93,2H20.68a2,2,0,0,1-1.93-2V10.16a2,2,0,0,1,1.93-2H31.83c.83,0,2.16.28,2.1,2l0,1.07ZM25,30.88h2.43m-8.41-2.69H33.33m-14-16.8H33.58M18.87,28H3.1A2.16,2.16,0,0,1,1,25.81V3.1A2.15,2.15,0,0,1,3.1,1H22.25c.93,0,2.4.31,2.34,2.1l0,1.13,0,3.7M11.33,25.14H14M1.31,22.57H18.74M1.59,4.11h23"
                  style="fill:none;stroke-linecap:round;stroke-linejoin:round;stroke-width:1.919909954071045px"/>
        </g>
    </g>
</svg>