<svg id="Layer_1" data-name="Layer 1" xmlns="http://www.w3.org/2000/svg" viewBox="0 0 19.44 11.09">

    <title>vk</title>
    <path
          d="M12.06,8.51c.71-.23,1.63,1.51,2.6,2.17a1.85,1.85,0,0,0,1.29.4l2.6,0s1.36-.08.71-1.15a8.67,8.67,0,0,0-1.93-2.23c-1.63-1.51-1.41-1.27.55-3.88,1.19-1.59,1.67-2.56,1.52-3s-1-.29-1-.29l-2.92,0a.6.6,0,0,0-.63.38,17,17,0,0,1-1.08,2.28c-1.3,2.21-1.82,2.33-2,2.19-.49-.32-.37-1.29-.37-2,0-2.14.32-3-.63-3.27A5,5,0,0,0,9.35,0,6.29,6.29,0,0,0,6.92.25c-.33.16-.59.53-.43.55a1.32,1.32,0,0,1,.86.43,2.82,2.82,0,0,1,.29,1.32s.17,2.52-.4,2.84c-.39.21-.93-.22-2.09-2.23A18.57,18.57,0,0,1,4.1,1,.86.86,0,0,0,3.86.67,1.21,1.21,0,0,0,3.41.49L.63.51S.22.52.06.7s0,.49,0,.49S2.23,6.28,4.69,8.85A6.66,6.66,0,0,0,9.51,11h1.16a1,1,0,0,0,.53-.23.84.84,0,0,0,.16-.51S11.34,8.74,12.06,8.51Z"
          transform="translate(0 0)"/>
</svg>