<svg xmlns="http://www.w3.org/2000/svg" viewBox="0 0 30.27 30.27">
    <title>world</title>
    <g id="Слой_2" data-name="Слой 2">
        <g id="Слой_1-2" data-name="Слой 1">
            <path d="M15.13,1A14.18,14.18,0,1,1,1,15.13,14.18,14.18,0,0,1,15.13,1Zm0,0V29.29M1,15.13H29.3M25.15,5.26c-2.16,2-5.85,3.24-10,3.24s-7.85-1.28-10-3.22M25.15,25c-2.16-1.95-5.85-3.24-10-3.24S7.28,23,5.12,25M15,29.15a17.09,17.09,0,0,1-7.09-14A17.09,17.09,0,0,1,15,1.19m.49,28a17.06,17.06,0,0,0,7.09-14,17.08,17.08,0,0,0-7.06-14"
                  style="fill:none;stroke-linecap:round;stroke-linejoin:round;stroke-width:1.919909954071045px"/>
        </g>
    </g>
</svg>