<svg id="Layer_1" data-name="Layer 1" xmlns="http://www.w3.org/2000/svg" viewBox="0 0 17.99 11.98">
    <defs>
    </defs>
    <title>youtube</title>
    <path
          d="M17.81,2.82A3.52,3.52,0,0,0,17,1a3,3,0,0,0-2-.81h-.12C12.57,0,9,0,9,0S5.42,0,3.05.16H3A3,3,0,0,0,1,1,3.52,3.52,0,0,0,.17,2.83,21.78,21.78,0,0,0,0,5.4V6.57A21.8,21.8,0,0,0,.17,9.16,3.53,3.53,0,0,0,1,11a3.24,3.24,0,0,0,2,.8l.22,0C4.54,11.94,8.54,12,9,12H9s3.56,0,5.94-.17H15A3,3,0,0,0,17,11a3.51,3.51,0,0,0,.83-1.85A22.17,22.17,0,0,0,18,6.57V5.4A21.55,21.55,0,0,0,17.81,2.82ZM13.17,6h0L5.89,9.5V6h0V2.5L13.17,6Z"/>
</svg>